<?xml version="1.0" encoding="UTF-8"?>
<gpx>
<wpt lon="9.95841" lat="53.21158"><time>2019-12-04T12:31:56Z</time></wpt>
<wpt lon="9.9591" lat="53.21222"><time>2019-12-04T12:32:02Z</time></wpt>
<wpt lon="9.95916" lat="53.21228"><time>2019-12-04T12:32:03Z</time></wpt>
<wpt lon="9.95988" lat="53.21299"><time>2019-12-04T12:32:10Z</time></wpt>
<wpt lon="9.96004" lat="53.21315"><time>2019-12-04T12:32:12Z</time></wpt>
<wpt lon="9.96045" lat="53.21356"><time>2019-12-04T12:32:16Z</time></wpt>
<wpt lon="9.96087" lat="53.21396"><time>2019-12-04T12:32:21Z</time></wpt>
<wpt lon="9.96128" lat="53.21437"><time>2019-12-04T12:32:25Z</time></wpt>
<wpt lon="9.9617" lat="53.21477"><time>2019-12-04T12:32:29Z</time></wpt>
<wpt lon="9.96211" lat="53.21518"><time>2019-12-04T12:32:33Z</time></wpt>
<wpt lon="9.96253" lat="53.21558"><time>2019-12-04T12:32:37Z</time></wpt>
<wpt lon="9.96294" lat="53.21599"><time>2019-12-04T12:32:42Z</time></wpt>
<wpt lon="9.96318" lat="53.21595"><time>2019-12-04T12:32:43Z</time></wpt>
<wpt lon="9.96391" lat="53.21584"><time>2019-12-04T12:32:47Z</time></wpt>
<wpt lon="9.96465" lat="53.21572"><time>2019-12-04T12:32:51Z</time></wpt>
<wpt lon="9.96538" lat="53.21561"><time>2019-12-04T12:32:55Z</time></wpt>
<wpt lon="9.96611" lat="53.21549"><time>2019-12-04T12:32:59Z</time></wpt>
<wpt lon="9.96702" lat="53.21537"><time>2019-12-04T12:33:04Z</time></wpt>
<wpt lon="9.96792" lat="53.21524"><time>2019-12-04T12:33:09Z</time></wpt>
<wpt lon="9.96926" lat="53.215"><time>2019-12-04T12:33:17Z</time></wpt>
<wpt lon="9.97034" lat="53.21452"><time>2019-12-04T12:33:24Z</time></wpt>
<wpt lon="9.97075" lat="53.21415"><time>2019-12-04T12:33:28Z</time></wpt>
<wpt lon="9.9718" lat="53.21394"><time>2019-12-04T12:33:34Z</time></wpt>
<wpt lon="9.97284" lat="53.21373"><time>2019-12-04T12:33:39Z</time></wpt>
<wpt lon="9.97257" lat="53.21305"><time>2019-12-04T12:33:46Z</time></wpt>
<wpt lon="9.97211" lat="53.21257"><time>2019-12-04T12:33:51Z</time></wpt>
<wpt lon="9.97165" lat="53.2121"><time>2019-12-04T12:33:55Z</time></wpt>
<wpt lon="9.97118" lat="53.21162"><time>2019-12-04T12:34:00Z</time></wpt>
<wpt lon="9.97104" lat="53.21148"><time>2019-12-04T12:34:02Z</time></wpt>
<wpt lon="9.97023" lat="53.21159"><time>2019-12-04T12:34:06Z</time></wpt>
<wpt lon="9.96943" lat="53.21169"><time>2019-12-04T12:34:11Z</time></wpt>
<wpt lon="9.96862" lat="53.2118"><time>2019-12-04T12:34:15Z</time></wpt>
<wpt lon="9.96782" lat="53.21191"><time>2019-12-04T12:34:19Z</time></wpt>
<wpt lon="9.96701" lat="53.21202"><time>2019-12-04T12:34:24Z</time></wpt>
<wpt lon="9.96621" lat="53.21212"><time>2019-12-04T12:34:28Z</time></wpt>
<wpt lon="9.9654" lat="53.21223"><time>2019-12-04T12:34:33Z</time></wpt>
<wpt lon="9.96536" lat="53.21205"><time>2019-12-04T12:34:34Z</time></wpt>
<wpt lon="9.96526" lat="53.21158"><time>2019-12-04T12:34:38Z</time></wpt>
<wpt lon="9.96515" lat="53.21111"><time>2019-12-04T12:34:43Z</time></wpt>
<wpt lon="9.96505" lat="53.21063"><time>2019-12-04T12:34:47Z</time></wpt>
<wpt lon="9.96494" lat="53.21016"><time>2019-12-04T12:34:51Z</time></wpt>
<wpt lon="9.96472" lat="53.21015"><time>2019-12-04T12:34:52Z</time></wpt>
<wpt lon="9.9646" lat="53.21014"><time>2019-12-04T12:34:53Z</time></wpt>
<wpt lon="9.96391" lat="53.21006"><time>2019-12-04T12:34:57Z</time></wpt>
<wpt lon="9.96334" lat="53.20996"><time>2019-12-04T12:35:00Z</time></wpt>
<wpt lon="9.96277" lat="53.20976"><time>2019-12-04T12:35:03Z</time></wpt>
<wpt lon="9.96244" lat="53.20973"><time>2019-12-04T12:35:05Z</time></wpt>
<wpt lon="9.96214" lat="53.20971"><time>2019-12-04T12:35:07Z</time></wpt>
<wpt lon="9.96193" lat="53.20975"><time>2019-12-04T12:35:08Z</time></wpt>
<wpt lon="9.96098" lat="53.21021"><time>2019-12-04T12:35:14Z</time></wpt>
<wpt lon="9.95999" lat="53.21069"><time>2019-12-04T12:35:21Z</time></wpt>
<wpt lon="9.95893" lat="53.21122"><time>2019-12-04T12:35:29Z</time></wpt>
<wpt lon="9.95833" lat="53.21141"><time>2019-12-04T12:35:32Z</time></wpt>
<wpt lon="9.95871" lat="53.21129"><time>2019-12-04T12:35:35Z</time></wpt>
</gpx>
