<?xml version="1.0" encoding="UTF-8"?>
<gpx xmlns="http://www.topografix.com/GPX/1/1" xmlns:gpxdata="http://www.cluetrust.com/XML/GPXDATA/1/0" creator="--No GPS SELECTED--" version="6.0">
  <metadata>
    <link href="https://gotoes.org/strava/Combine_GPX_TCX_FIT_Files.php">
      <text>GOTOES STRAVA TOOLS</text>
    </link>
    <time>2019-11-27T10:29:31Z</time>
  </metadata>
    <name>GOTOES Export</name>
    <type>Running</type>
      <wpt lon="7.14192" lat="50.78067">
        <ele>63.15</ele>
        <time>2019-11-27T10:29:31Z</time>
      </wpt>
      <wpt lon="7.14113" lat="50.78074">
        <ele>63.65</ele>
        <time>2019-11-27T10:29:40Z</time>
      </wpt>
      <wpt lon="7.14096" lat="50.78076">
        <ele>64.08</ele>
        <time>2019-11-27T10:29:41Z</time>
      </wpt>
      <wpt lon="7.14074" lat="50.78079">
        <ele>62.95</ele>
        <time>2019-11-27T10:29:44Z</time>
      </wpt>
      <wpt lon="7.14061" lat="50.78079">
        <ele>61.8</ele>
        <time>2019-11-27T10:29:45Z</time>
      </wpt>
      <wpt lon="7.1405" lat="50.78077">
        <ele>61.21</ele>
        <time>2019-11-27T10:29:46Z</time>
      </wpt>
      <wpt lon="7.14036" lat="50.78072">
        <ele>60.82</ele>
        <time>2019-11-27T10:29:48Z</time>
      </wpt>
      <wpt lon="7.14005" lat="50.78071">
        <ele>59.53</ele>
        <time>2019-11-27T10:29:51Z</time>
      </wpt>
      <wpt lon="7.1399" lat="50.78073">
        <ele>58.17</ele>
        <time>2019-11-27T10:29:52Z</time>
      </wpt>
      <wpt lon="7.13988" lat="50.78073">
        <ele>57.98</ele>
        <time>2019-11-27T10:29:53Z</time>
      </wpt>
      <wpt lon="7.13954" lat="50.78072">
        <ele>55.71</ele>
        <time>2019-11-27T10:29:56Z</time>
      </wpt>
      <wpt lon="7.13905" lat="50.78071">
        <ele>54.96</ele>
        <time>2019-11-27T10:30:01Z</time>
      </wpt>
      <wpt lon="7.13877" lat="50.7807">
        <ele>54.87</ele>
        <time>2019-11-27T10:30:04Z</time>
      </wpt>
      <wpt lon="7.13847" lat="50.78069">
        <ele>55.78</ele>
        <time>2019-11-27T10:30:07Z</time>
      </wpt>
      <wpt lon="7.13773" lat="50.78063">
        <ele>56</ele>
        <time>2019-11-27T10:30:14Z</time>
      </wpt>
      <wpt lon="7.13734" lat="50.78059">
        <ele>55.42</ele>
        <time>2019-11-27T10:30:18Z</time>
      </wpt>
      <wpt lon="7.13675" lat="50.78047">
        <ele>60.71</ele>
        <time>2019-11-27T10:30:25Z</time>
      </wpt>
      <wpt lon="7.13641" lat="50.78039">
        <ele>64.17</ele>
        <time>2019-11-27T10:30:28Z</time>
      </wpt>
      <wpt lon="7.13619" lat="50.78032">
        <ele>67.77</ele>
        <time>2019-11-27T10:30:31Z</time>
      </wpt>
      <wpt lon="7.13588" lat="50.78021">
        <ele>65.69</ele>
        <time>2019-11-27T10:30:34Z</time>
      </wpt>
      <wpt lon="7.13572" lat="50.78012">
        <ele>59.74</ele>
        <time>2019-11-27T10:30:37Z</time>
      </wpt>
      <wpt lon="7.13501" lat="50.77971">
        <ele>54.19</ele>
        <time>2019-11-27T10:30:46Z</time>
      </wpt>
      <wpt lon="7.13466" lat="50.77951">
        <ele>49.33</ele>
        <time>2019-11-27T10:30:51Z</time>
      </wpt>
      <wpt lon="7.13461" lat="50.77945">
        <ele>48.79</ele>
        <time>2019-11-27T10:30:52Z</time>
      </wpt>
      <wpt lon="7.13412" lat="50.7798">
        <ele>44.76</ele>
        <time>2019-11-27T10:31:00Z</time>
      </wpt>
      <wpt lon="7.13381" lat="50.78003">
        <ele>42.61</ele>
        <time>2019-11-27T10:31:05Z</time>
      </wpt>
      <wpt lon="7.13331" lat="50.78041">
        <ele>38.31</ele>
        <time>2019-11-27T10:31:12Z</time>
      </wpt>
      <wpt lon="7.13281" lat="50.78078">
        <ele>38.71</ele>
        <time>2019-11-27T10:31:20Z</time>
      </wpt>
      <wpt lon="7.13231" lat="50.78116">
        <ele>41.02</ele>
        <time>2019-11-27T10:31:28Z</time>
      </wpt>
      <wpt lon="7.13181" lat="50.78154">
        <ele>45.85</ele>
        <time>2019-11-27T10:31:36Z</time>
      </wpt>
      <wpt lon="7.13162" lat="50.7817">
        <ele>47.45</ele>
        <time>2019-11-27T10:31:39Z</time>
      </wpt>
      <wpt lon="7.13138" lat="50.78189">
        <ele>51.25</ele>
        <time>2019-11-27T10:31:43Z</time>
      </wpt>
      <wpt lon="7.13094" lat="50.7822">
        <ele>53.76</ele>
        <time>2019-11-27T10:31:50Z</time>
      </wpt>
      <wpt lon="7.13096" lat="50.7823">
        <ele>53.19</ele>
        <time>2019-11-27T10:31:51Z</time>
      </wpt>
      <wpt lon="7.13145" lat="50.78272">
        <ele>57.76</ele>
        <time>2019-11-27T10:32:00Z</time>
      </wpt>
      <wpt lon="7.13194" lat="50.78322">
        <ele>50.51</ele>
        <time>2019-11-27T10:32:09Z</time>
      </wpt>
      <wpt lon="7.13227" lat="50.78341">
        <ele>49.28</ele>
        <time>2019-11-27T10:32:14Z</time>
      </wpt>
      <wpt lon="7.13292" lat="50.78381">
        <ele>51.14</ele>
        <time>2019-11-27T10:32:23Z</time>
      </wpt>
      <wpt lon="7.13358" lat="50.78412">
        <ele>49.45</ele>
        <time>2019-11-27T10:32:31Z</time>
      </wpt>
      <wpt lon="7.13409" lat="50.78431">
        <ele>48.93</ele>
        <time>2019-11-27T10:32:37Z</time>
      </wpt>
      <wpt lon="7.13543" lat="50.78465">
        <ele>46.82</ele>
        <time>2019-11-27T10:32:52Z</time>
      </wpt>
      <wpt lon="7.13653" lat="50.78486">
        <ele>44.24</ele>
        <time>2019-11-27T10:33:03Z</time>
      </wpt>
      <wpt lon="7.13699" lat="50.78482">
        <ele>42.7</ele>
        <time>2019-11-27T10:33:08Z</time>
      </wpt>
      <wpt lon="7.13712" lat="50.78477">
        <ele>42.34</ele>
        <time>2019-11-27T10:33:10Z</time>
      </wpt>
      <wpt lon="7.13739" lat="50.78466">
        <ele>42.65</ele>
        <time>2019-11-27T10:33:13Z</time>
      </wpt>
      <wpt lon="7.13786" lat="50.78441">
        <ele>41.93</ele>
        <time>2019-11-27T10:33:19Z</time>
      </wpt>
      <wpt lon="7.13835" lat="50.78431">
        <ele>48.63</ele>
        <time>2019-11-27T10:33:24Z</time>
      </wpt>
      <wpt lon="7.13884" lat="50.78425">
        <ele>51</ele>
        <time>2019-11-27T10:33:29Z</time>
      </wpt>
      <wpt lon="7.1398" lat="50.78435">
        <ele>47.18</ele>
        <time>2019-11-27T10:33:39Z</time>
      </wpt>
      <wpt lon="7.14076" lat="50.78445">
        <ele>46.03</ele>
        <time>2019-11-27T10:33:49Z</time>
      </wpt>
      <wpt lon="7.14204" lat="50.7845">
        <ele>46.68</ele>
        <time>2019-11-27T10:34:02Z</time>
      </wpt>
      <wpt lon="7.14282" lat="50.78442">
        <ele>45.63</ele>
        <time>2019-11-27T10:34:10Z</time>
      </wpt>
      <wpt lon="7.14353" lat="50.78434">
        <ele>42.11</ele>
        <time>2019-11-27T10:34:17Z</time>
      </wpt>
      <wpt lon="7.14424" lat="50.78426">
        <ele>45.4</ele>
        <time>2019-11-27T10:34:25Z</time>
      </wpt>
      <wpt lon="7.14471" lat="50.7839">
        <ele>44.01</ele>
        <time>2019-11-27T10:34:32Z</time>
      </wpt>
      <wpt lon="7.14517" lat="50.78353">
        <ele>47.12</ele>
        <time>2019-11-27T10:34:40Z</time>
      </wpt>
      <wpt lon="7.14504" lat="50.78332">
        <ele>50.44</ele>
        <time>2019-11-27T10:34:43Z</time>
      </wpt>
      <wpt lon="7.14472" lat="50.78306">
        <ele>56.93</ele>
        <time>2019-11-27T10:34:49Z</time>
      </wpt>
      <wpt lon="7.14429" lat="50.78287">
        <ele>55.37</ele>
        <time>2019-11-27T10:34:54Z</time>
      </wpt>
      <wpt lon="7.14365" lat="50.78269">
        <ele>53.19</ele>
        <time>2019-11-27T10:35:01Z</time>
      </wpt>
      <wpt lon="7.14346" lat="50.78257">
        <ele>52.03</ele>
        <time>2019-11-27T10:35:04Z</time>
      </wpt>
      <wpt lon="7.14326" lat="50.78236">
        <ele>50.99</ele>
        <time>2019-11-27T10:35:08Z</time>
      </wpt>
      <wpt lon="7.1431" lat="50.78222">
        <ele>50.03</ele>
        <time>2019-11-27T10:35:10Z</time>
      </wpt>
      <wpt lon="7.14281" lat="50.78202">
        <ele>53.39</ele>
        <time>2019-11-27T10:35:15Z</time>
      </wpt>
      <wpt lon="7.1416" lat="50.78132">
        <ele>59.88</ele>
        <time>2019-11-27T10:35:31Z</time>
      </wpt>
      <wpt lon="7.14204" lat="50.78129">
        <ele>61.2</ele>
        <time>2019-11-27T10:35:36Z</time>
      </wpt>
      <wpt lon="7.14202" lat="50.7812">
        <ele>61.15</ele>
        <time>2019-11-27T10:35:37Z</time>
      </wpt>
      <wpt lon="7.14219" lat="50.78118">
        <ele>60.81</ele>
        <time>2019-11-27T10:35:39Z</time>
      </wpt>
      <wpt lon="7.14231" lat="50.78107">
        <ele>63.09</ele>
        <time>2019-11-27T10:35:41Z</time>
      </wpt>
      <wpt lon="7.1424" lat="50.78104">
        <ele>64.66</ele>
        <time>2019-11-27T10:35:42Z</time>
      </wpt>
      <wpt lon="7.14234" lat="50.78094">
        <ele>64.89</ele>
        <time>2019-11-27T10:35:44Z</time>
      </wpt>
      <wpt lon="7.14227" lat="50.78062">
        <ele>62.16</ele>
        <time>2019-11-27T10:35:49Z</time>
      </wpt>
</gpx>
