<?xml version="1.0" encoding="UTF-8"?>
<gpx >
<wpt lon="7.09246" lat="50.854"><time>2019-12-04T13:17:38Z</time></wpt>
<wpt lon="7.09237" lat="50.85414"><time>2019-12-04T13:17:40Z</time></wpt>
<wpt lon="7.09229" lat="50.85427"><time>2019-12-04T13:17:41Z</time></wpt>
<wpt lon="7.09219" lat="50.85443"><time>2019-12-04T13:17:42Z</time></wpt>
<wpt lon="7.09206" lat="50.85463"><time>2019-12-04T13:17:44Z</time></wpt>
<wpt lon="7.09197" lat="50.85477"><time>2019-12-04T13:17:46Z</time></wpt>
<wpt lon="7.09187" lat="50.85492"><time>2019-12-04T13:17:47Z</time></wpt>
<wpt lon="7.09174" lat="50.85511"><time>2019-12-04T13:17:49Z</time></wpt>
<wpt lon="7.09167" lat="50.85521"><time>2019-12-04T13:17:50Z</time></wpt>
<wpt lon="7.0916" lat="50.85531"><time>2019-12-04T13:17:51Z</time></wpt>
<wpt lon="7.09132" lat="50.85578"><time>2019-12-04T13:17:55Z</time></wpt>
<wpt lon="7.09128" lat="50.85584"><time>2019-12-04T13:17:56Z</time></wpt>
<wpt lon="7.09097" lat="50.85631"><time>2019-12-04T13:18:00Z</time></wpt>
<wpt lon="7.09093" lat="50.85639"><time>2019-12-04T13:18:01Z</time></wpt>
<wpt lon="7.09089" lat="50.85648"><time>2019-12-04T13:18:02Z</time></wpt>
<wpt lon="7.09083" lat="50.85664"><time>2019-12-04T13:18:03Z</time></wpt>
<wpt lon="7.09055" lat="50.85735"><time>2019-12-04T13:18:10Z</time></wpt>
<wpt lon="7.09043" lat="50.85761"><time>2019-12-04T13:18:12Z</time></wpt>
<wpt lon="7.09033" lat="50.85784"><time>2019-12-04T13:18:15Z</time></wpt>
<wpt lon="7.09025" lat="50.85801"><time>2019-12-04T13:18:16Z</time></wpt>
<wpt lon="7.09022" lat="50.85809"><time>2019-12-04T13:18:17Z</time></wpt>
<wpt lon="7.09018" lat="50.85818"><time>2019-12-04T13:18:18Z</time></wpt>
<wpt lon="7.08981" lat="50.85902"><time>2019-12-04T13:18:25Z</time></wpt>
<wpt lon="7.08979" lat="50.85907"><time>2019-12-04T13:18:26Z</time></wpt>
<wpt lon="7.08969" lat="50.85929"><time>2019-12-04T13:18:28Z</time></wpt>
<wpt lon="7.08964" lat="50.85936"><time>2019-12-04T13:18:29Z</time></wpt>
<wpt lon="7.08957" lat="50.85954"><time>2019-12-04T13:18:30Z</time></wpt>
<wpt lon="7.08953" lat="50.85967"><time>2019-12-04T13:18:31Z</time></wpt>
<wpt lon="7.0895" lat="50.85976"><time>2019-12-04T13:18:32Z</time></wpt>
<wpt lon="7.08941" lat="50.85996"><time>2019-12-04T13:18:34Z</time></wpt>
<wpt lon="7.08934" lat="50.86006"><time>2019-12-04T13:18:35Z</time></wpt>
<wpt lon="7.0893" lat="50.86015"><time>2019-12-04T13:18:36Z</time></wpt>
<wpt lon="7.08926" lat="50.86029"><time>2019-12-04T13:18:37Z</time></wpt>
<wpt lon="7.08921" lat="50.86042"><time>2019-12-04T13:18:38Z</time></wpt>
<wpt lon="7.08916" lat="50.86052"><time>2019-12-04T13:18:39Z</time></wpt>
<wpt lon="7.08908" lat="50.86074"><time>2019-12-04T13:18:41Z</time></wpt>
<wpt lon="7.08908" lat="50.86074"><time>2019-12-04T13:18:42Z</time></wpt>
<wpt lon="7.08837" lat="50.86066"><time>2019-12-04T13:18:46Z</time></wpt>
<wpt lon="7.08751" lat="50.86057"><time>2019-12-04T13:18:51Z</time></wpt>
<wpt lon="7.08722" lat="50.86053"><time>2019-12-04T13:18:53Z</time></wpt>
<wpt lon="7.08625" lat="50.86042"><time>2019-12-04T13:18:58Z</time></wpt>
<wpt lon="7.08627" lat="50.86023"><time>2019-12-04T13:19:00Z</time></wpt>
<wpt lon="7.08628" lat="50.86013"><time>2019-12-04T13:19:01Z</time></wpt>
<wpt lon="7.0863" lat="50.85987"><time>2019-12-04T13:19:03Z</time></wpt>
<wpt lon="7.08632" lat="50.85959"><time>2019-12-04T13:19:06Z</time></wpt>
<wpt lon="7.08634" lat="50.85947"><time>2019-12-04T13:19:07Z</time></wpt>
<wpt lon="7.08635" lat="50.85931"><time>2019-12-04T13:19:08Z</time></wpt>
<wpt lon="7.08639" lat="50.85899"><time>2019-12-04T13:19:11Z</time></wpt>
<wpt lon="7.08642" lat="50.85888"><time>2019-12-04T13:19:12Z</time></wpt>
<wpt lon="7.08644" lat="50.85882"><time>2019-12-04T13:19:13Z</time></wpt>
<wpt lon="7.0865" lat="50.85872"><time>2019-12-04T13:19:14Z</time></wpt>
<wpt lon="7.08666" lat="50.85857"><time>2019-12-04T13:19:15Z</time></wpt>
<wpt lon="7.0869" lat="50.85861"><time>2019-12-04T13:19:17Z</time></wpt>
<wpt lon="7.08697" lat="50.85852"><time>2019-12-04T13:19:18Z</time></wpt>
<wpt lon="7.08707" lat="50.85838"><time>2019-12-04T13:19:19Z</time></wpt>
<wpt lon="7.08715" lat="50.85826"><time>2019-12-04T13:19:20Z</time></wpt>
<wpt lon="7.08725" lat="50.85814"><time>2019-12-04T13:19:21Z</time></wpt>
<wpt lon="7.08733" lat="50.85804"><time>2019-12-04T13:19:22Z</time></wpt>
<wpt lon="7.08737" lat="50.85797"><time>2019-12-04T13:19:23Z</time></wpt>
<wpt lon="7.08753" lat="50.85773"><time>2019-12-04T13:19:25Z</time></wpt>
<wpt lon="7.08681" lat="50.85761"><time>2019-12-04T13:19:30Z</time></wpt>
<wpt lon="7.08626" lat="50.85752"><time>2019-12-04T13:19:33Z</time></wpt>
<wpt lon="7.08601" lat="50.85747"><time>2019-12-04T13:19:34Z</time></wpt>
<wpt lon="7.08601" lat="50.85735"><time>2019-12-04T13:19:35Z</time></wpt>
<wpt lon="7.08567" lat="50.85728"><time>2019-12-04T13:19:37Z</time></wpt>
<wpt lon="7.08556" lat="50.85723"><time>2019-12-04T13:19:38Z</time></wpt>
<wpt lon="7.08543" lat="50.85715"><time>2019-12-04T13:19:39Z</time></wpt>
<wpt lon="7.08534" lat="50.85699"><time>2019-12-04T13:19:41Z</time></wpt>
<wpt lon="7.08526" lat="50.85649"><time>2019-12-04T13:19:45Z</time></wpt>
<wpt lon="7.08544" lat="50.85645"><time>2019-12-04T13:19:46Z</time></wpt>
<wpt lon="7.08551" lat="50.85625"><time>2019-12-04T13:19:48Z</time></wpt>
<wpt lon="7.08551" lat="50.85618"><time>2019-12-04T13:19:49Z</time></wpt>
<wpt lon="7.08546" lat="50.85596"><time>2019-12-04T13:19:51Z</time></wpt>
<wpt lon="7.0854" lat="50.85569"><time>2019-12-04T13:19:53Z</time></wpt>
<wpt lon="7.08542" lat="50.85556"><time>2019-12-04T13:19:54Z</time></wpt>
<wpt lon="7.08544" lat="50.85551"><time>2019-12-04T13:19:55Z</time></wpt>
<wpt lon="7.08576" lat="50.85494"><time>2019-12-04T13:20:00Z</time></wpt>
<wpt lon="7.08606" lat="50.85444"><time>2019-12-04T13:20:05Z</time></wpt>
<wpt lon="7.08614" lat="50.85429"><time>2019-12-04T13:20:06Z</time></wpt>
<wpt lon="7.08696" lat="50.853"><time>2019-12-04T13:20:19Z</time></wpt>
<wpt lon="7.0869" lat="50.85298"><time>2019-12-04T13:20:20Z</time></wpt>
<wpt lon="7.08712" lat="50.85272"><time>2019-12-04T13:20:22Z</time></wpt>
<wpt lon="7.08739" lat="50.85241"><time>2019-12-04T13:20:25Z</time></wpt>
<wpt lon="7.0879" lat="50.85183"><time>2019-12-04T13:20:31Z</time></wpt>
<wpt lon="7.08814" lat="50.85155"><time>2019-12-04T13:20:34Z</time></wpt>
<wpt lon="7.0889" lat="50.85068"><time>2019-12-04T13:20:43Z</time></wpt>
<wpt lon="7.08955" lat="50.84996"><time>2019-12-04T13:20:50Z</time></wpt>
<wpt lon="7.08968" lat="50.84982"><time>2019-12-04T13:20:52Z</time></wpt>
<wpt lon="7.08982" lat="50.84966"><time>2019-12-04T13:20:53Z</time></wpt>
<wpt lon="7.08992" lat="50.84956"><time>2019-12-04T13:20:55Z</time></wpt>
<wpt lon="7.09002" lat="50.84944"><time>2019-12-04T13:20:56Z</time></wpt>
<wpt lon="7.09009" lat="50.84934"><time>2019-12-04T13:20:57Z</time></wpt>
<wpt lon="7.09026" lat="50.84922"><time>2019-12-04T13:20:58Z</time></wpt>
<wpt lon="7.09184" lat="50.84969"><time>2019-12-04T13:21:08Z</time></wpt>
<wpt lon="7.09203" lat="50.84975"><time>2019-12-04T13:21:09Z</time></wpt>
<wpt lon="7.09209" lat="50.8498"><time>2019-12-04T13:21:10Z</time></wpt>
<wpt lon="7.09464" lat="50.8507"><time>2019-12-04T13:21:27Z</time></wpt>
<wpt lon="7.09458" lat="50.85077"><time>2019-12-04T13:21:28Z</time></wpt>
<wpt lon="7.09437" lat="50.85103"><time>2019-12-04T13:21:31Z</time></wpt>
<wpt lon="7.09411" lat="50.85138"><time>2019-12-04T13:21:34Z</time></wpt>
<wpt lon="7.09396" lat="50.85158"><time>2019-12-04T13:21:36Z</time></wpt>
<wpt lon="7.0936" lat="50.85213"><time>2019-12-04T13:21:41Z</time></wpt>
<wpt lon="7.09355" lat="50.85221"><time>2019-12-04T13:21:42Z</time></wpt>
<wpt lon="7.09303" lat="50.85305"><time>2019-12-04T13:21:50Z</time></wpt>
<wpt lon="7.09258" lat="50.85375"><time>2019-12-04T13:21:57Z</time></wpt>
<wpt lon="7.09251" lat="50.85381"><time>2019-12-04T13:21:58Z</time></wpt>
</gpx>
