<?xml version="1.0" encoding="UTF-8"?>
<gpx>
<wpt lon="7.09814" lat="50.85883"><time>2019-12-04T13:18:35Z</time></wpt>
<wpt lon="7.09866" lat="50.85884"><time>2019-12-04T13:18:37Z</time></wpt>
<wpt lon="7.09879" lat="50.85884"><time>2019-12-04T13:18:38Z</time></wpt>
<wpt lon="7.09919" lat="50.85886"><time>2019-12-04T13:18:40Z</time></wpt>
<wpt lon="7.09937" lat="50.85886"><time>2019-12-04T13:18:41Z</time></wpt>
<wpt lon="7.09951" lat="50.85887"><time>2019-12-04T13:18:42Z</time></wpt>
<wpt lon="7.10009" lat="50.85889"><time>2019-12-04T13:18:46Z</time></wpt>
<wpt lon="7.10077" lat="50.85891"><time>2019-12-04T13:18:49Z</time></wpt>
<wpt lon="7.10094" lat="50.85892"><time>2019-12-04T13:18:50Z</time></wpt>
<wpt lon="7.10125" lat="50.85893"><time>2019-12-04T13:18:52Z</time></wpt>
<wpt lon="7.10148" lat="50.85894"><time>2019-12-04T13:18:53Z</time></wpt>
<wpt lon="7.10152" lat="50.85894"><time>2019-12-04T13:18:54Z</time></wpt>
<wpt lon="7.10218" lat="50.85896"><time>2019-12-04T13:18:57Z</time></wpt>
<wpt lon="7.10231" lat="50.85904"><time>2019-12-04T13:18:58Z</time></wpt>
<wpt lon="7.10234" lat="50.85913"><time>2019-12-04T13:18:59Z</time></wpt>
<wpt lon="7.10235" lat="50.85923"><time>2019-12-04T13:19:00Z</time></wpt>
<wpt lon="7.10233" lat="50.85933"><time>2019-12-04T13:19:01Z</time></wpt>
<wpt lon="7.1023" lat="50.8595"><time>2019-12-04T13:19:02Z</time></wpt>
<wpt lon="7.10226" lat="50.8598"><time>2019-12-04T13:19:05Z</time></wpt>
<wpt lon="7.10224" lat="50.86002"><time>2019-12-04T13:19:07Z</time></wpt>
<wpt lon="7.10222" lat="50.86033"><time>2019-12-04T13:19:10Z</time></wpt>
<wpt lon="7.10221" lat="50.86042"><time>2019-12-04T13:19:11Z</time></wpt>
<wpt lon="7.10219" lat="50.86056"><time>2019-12-04T13:19:12Z</time></wpt>
<wpt lon="7.10215" lat="50.86085"><time>2019-12-04T13:19:14Z</time></wpt>
<wpt lon="7.10212" lat="50.86101"><time>2019-12-04T13:19:16Z</time></wpt>
<wpt lon="7.10209" lat="50.86118"><time>2019-12-04T13:19:17Z</time></wpt>
<wpt lon="7.10206" lat="50.8614"><time>2019-12-04T13:19:19Z</time></wpt>
<wpt lon="7.10202" lat="50.86162"><time>2019-12-04T13:19:21Z</time></wpt>
<wpt lon="7.102" lat="50.86174"><time>2019-12-04T13:19:22Z</time></wpt>
<wpt lon="7.10199" lat="50.86182"><time>2019-12-04T13:19:23Z</time></wpt>
<wpt lon="7.10198" lat="50.86189"><time>2019-12-04T13:19:24Z</time></wpt>
<wpt lon="7.10189" lat="50.86248"><time>2019-12-04T13:19:29Z</time></wpt>
<wpt lon="7.10187" lat="50.86259"><time>2019-12-04T13:19:30Z</time></wpt>
<wpt lon="7.10182" lat="50.86293"><time>2019-12-04T13:19:33Z</time></wpt>
<wpt lon="7.10178" lat="50.86319"><time>2019-12-04T13:19:35Z</time></wpt>
<wpt lon="7.10178" lat="50.86323"><time>2019-12-04T13:19:36Z</time></wpt>
<wpt lon="7.10172" lat="50.86362"><time>2019-12-04T13:19:39Z</time></wpt>
<wpt lon="7.10168" lat="50.86382"><time>2019-12-04T13:19:41Z</time></wpt>
<wpt lon="7.10167" lat="50.86393"><time>2019-12-04T13:19:42Z</time></wpt>
<wpt lon="7.10195" lat="50.86396"><time>2019-12-04T13:19:44Z</time></wpt>
<wpt lon="7.10226" lat="50.86401"><time>2019-12-04T13:19:45Z</time></wpt>
<wpt lon="7.10237" lat="50.86402"><time>2019-12-04T13:19:46Z</time></wpt>
<wpt lon="7.10248" lat="50.86404"><time>2019-12-04T13:19:47Z</time></wpt>
<wpt lon="7.10279" lat="50.86408"><time>2019-12-04T13:19:48Z</time></wpt>
<wpt lon="7.10317" lat="50.86415"><time>2019-12-04T13:19:51Z</time></wpt>
<wpt lon="7.10332" lat="50.86418"><time>2019-12-04T13:19:52Z</time></wpt>
<wpt lon="7.10358" lat="50.86422"><time>2019-12-04T13:19:53Z</time></wpt>
<wpt lon="7.10376" lat="50.86424"><time>2019-12-04T13:19:54Z</time></wpt>
<wpt lon="7.10388" lat="50.86415"><time>2019-12-04T13:19:55Z</time></wpt>
<wpt lon="7.10405" lat="50.86417"><time>2019-12-04T13:19:56Z</time></wpt>
<wpt lon="7.10413" lat="50.86425"><time>2019-12-04T13:19:57Z</time></wpt>
<wpt lon="7.10437" lat="50.86428"><time>2019-12-04T13:19:59Z</time></wpt>
<wpt lon="7.10542" lat="50.86443"><time>2019-12-04T13:20:05Z</time></wpt>
<wpt lon="7.10644" lat="50.86452"><time>2019-12-04T13:20:10Z</time></wpt>
<wpt lon="7.10644" lat="50.86446"><time>2019-12-04T13:20:11Z</time></wpt>
<wpt lon="7.10645" lat="50.86433"><time>2019-12-04T13:20:12Z</time></wpt>
<wpt lon="7.10646" lat="50.86414"><time>2019-12-04T13:20:14Z</time></wpt>
<wpt lon="7.10647" lat="50.86401"><time>2019-12-04T13:20:15Z</time></wpt>
<wpt lon="7.10648" lat="50.86386"><time>2019-12-04T13:20:16Z</time></wpt>
<wpt lon="7.1065" lat="50.86366"><time>2019-12-04T13:20:18Z</time></wpt>
<wpt lon="7.10651" lat="50.86353"><time>2019-12-04T13:20:19Z</time></wpt>
<wpt lon="7.10651" lat="50.86345"><time>2019-12-04T13:20:20Z</time></wpt>
<wpt lon="7.10652" lat="50.86339"><time>2019-12-04T13:20:21Z</time></wpt>
<wpt lon="7.10653" lat="50.86324"><time>2019-12-04T13:20:22Z</time></wpt>
<wpt lon="7.10654" lat="50.86308"><time>2019-12-04T13:20:23Z</time></wpt>
<wpt lon="7.10655" lat="50.86296"><time>2019-12-04T13:20:24Z</time></wpt>
<wpt lon="7.10656" lat="50.86292"><time>2019-12-04T13:20:25Z</time></wpt>
<wpt lon="7.10657" lat="50.86277"><time>2019-12-04T13:20:26Z</time></wpt>
<wpt lon="7.10658" lat="50.86271"><time>2019-12-04T13:20:27Z</time></wpt>
<wpt lon="7.10659" lat="50.86259"><time>2019-12-04T13:20:28Z</time></wpt>
<wpt lon="7.10661" lat="50.86242"><time>2019-12-04T13:20:29Z</time></wpt>
<wpt lon="7.10661" lat="50.86217"><time>2019-12-04T13:20:31Z</time></wpt>
<wpt lon="7.10655" lat="50.86209"><time>2019-12-04T13:20:32Z</time></wpt>
<wpt lon="7.10638" lat="50.86202"><time>2019-12-04T13:20:33Z</time></wpt>
<wpt lon="7.10598" lat="50.862"><time>2019-12-04T13:20:36Z</time></wpt>
<wpt lon="7.10579" lat="50.862"><time>2019-12-04T13:20:37Z</time></wpt>
<wpt lon="7.10565" lat="50.86199"><time>2019-12-04T13:20:38Z</time></wpt>
<wpt lon="7.10543" lat="50.86198"><time>2019-12-04T13:20:39Z</time></wpt>
<wpt lon="7.10497" lat="50.86197"><time>2019-12-04T13:20:41Z</time></wpt>
<wpt lon="7.10476" lat="50.86196"><time>2019-12-04T13:20:43Z</time></wpt>
<wpt lon="7.10445" lat="50.86195"><time>2019-12-04T13:20:44Z</time></wpt>
<wpt lon="7.10434" lat="50.86194"><time>2019-12-04T13:20:45Z</time></wpt>
<wpt lon="7.10435" lat="50.86182"><time>2019-12-04T13:20:46Z</time></wpt>
<wpt lon="7.10436" lat="50.86171"><time>2019-12-04T13:20:47Z</time></wpt>
<wpt lon="7.1044" lat="50.8613"><time>2019-12-04T13:20:51Z</time></wpt>
<wpt lon="7.10444" lat="50.86088"><time>2019-12-04T13:20:54Z</time></wpt>
<wpt lon="7.1045" lat="50.86027"><time>2019-12-04T13:21:00Z</time></wpt>
<wpt lon="7.10462" lat="50.85915"><time>2019-12-04T13:21:10Z</time></wpt>
<wpt lon="7.10482" lat="50.85915"><time>2019-12-04T13:21:11Z</time></wpt>
<wpt lon="7.10483" lat="50.85907"><time>2019-12-04T13:21:12Z</time></wpt>
<wpt lon="7.1053" lat="50.85909"><time>2019-12-04T13:21:14Z</time></wpt>
<wpt lon="7.10574" lat="50.8591"><time>2019-12-04T13:21:17Z</time></wpt>
<wpt lon="7.10633" lat="50.85912"><time>2019-12-04T13:21:20Z</time></wpt>
<wpt lon="7.10687" lat="50.85914"><time>2019-12-04T13:21:23Z</time></wpt>
<wpt lon="7.10763" lat="50.85917"><time>2019-12-04T13:21:27Z</time></wpt>
<wpt lon="7.10774" lat="50.85915"><time>2019-12-04T13:21:28Z</time></wpt>
<wpt lon="7.10788" lat="50.85909"><time>2019-12-04T13:21:29Z</time></wpt>
<wpt lon="7.10793" lat="50.85896"><time>2019-12-04T13:21:30Z</time></wpt>
<wpt lon="7.10794" lat="50.85873"><time>2019-12-04T13:21:32Z</time></wpt>
<wpt lon="7.10796" lat="50.85854"><time>2019-12-04T13:21:34Z</time></wpt>
<wpt lon="7.10797" lat="50.85838"><time>2019-12-04T13:21:35Z</time></wpt>
<wpt lon="7.10798" lat="50.85805"><time>2019-12-04T13:21:38Z</time></wpt>
<wpt lon="7.10799" lat="50.85798"><time>2019-12-04T13:21:39Z</time></wpt>
<wpt lon="7.108" lat="50.85788"><time>2019-12-04T13:21:40Z</time></wpt>
<wpt lon="7.10803" lat="50.85775"><time>2019-12-04T13:21:41Z</time></wpt>
<wpt lon="7.10809" lat="50.85762"><time>2019-12-04T13:21:42Z</time></wpt>
<wpt lon="7.1082" lat="50.85749"><time>2019-12-04T13:21:44Z</time></wpt>
<wpt lon="7.10833" lat="50.85738"><time>2019-12-04T13:21:45Z</time></wpt>
<wpt lon="7.10845" lat="50.85727"><time>2019-12-04T13:21:46Z</time></wpt>
<wpt lon="7.10866" lat="50.85705"><time>2019-12-04T13:21:48Z</time></wpt>
<wpt lon="7.10872" lat="50.85694"><time>2019-12-04T13:21:49Z</time></wpt>
<wpt lon="7.10875" lat="50.85683"><time>2019-12-04T13:21:50Z</time></wpt>
<wpt lon="7.10875" lat="50.85678"><time>2019-12-04T13:21:51Z</time></wpt>
<wpt lon="7.10876" lat="50.85662"><time>2019-12-04T13:21:52Z</time></wpt>
<wpt lon="7.10854" lat="50.85661"><time>2019-12-04T13:21:53Z</time></wpt>
<wpt lon="7.10836" lat="50.85661"><time>2019-12-04T13:21:54Z</time></wpt>
<wpt lon="7.1081" lat="50.8566"><time>2019-12-04T13:21:56Z</time></wpt>
<wpt lon="7.10758" lat="50.85659"><time>2019-12-04T13:21:59Z</time></wpt>
<wpt lon="7.10655" lat="50.85656"><time>2019-12-04T13:22:05Z</time></wpt>
<wpt lon="7.10653" lat="50.85704"><time>2019-12-04T13:22:09Z</time></wpt>
<wpt lon="7.10652" lat="50.85719"><time>2019-12-04T13:22:10Z</time></wpt>
<wpt lon="7.10652" lat="50.85732"><time>2019-12-04T13:22:11Z</time></wpt>
<wpt lon="7.10648" lat="50.85744"><time>2019-12-04T13:22:12Z</time></wpt>
<wpt lon="7.10643" lat="50.85747"><time>2019-12-04T13:22:13Z</time></wpt>
<wpt lon="7.10622" lat="50.85752"><time>2019-12-04T13:22:14Z</time></wpt>
<wpt lon="7.1061" lat="50.85754"><time>2019-12-04T13:22:15Z</time></wpt>
<wpt lon="7.10591" lat="50.85759"><time>2019-12-04T13:22:16Z</time></wpt>
<wpt lon="7.10571" lat="50.85763"><time>2019-12-04T13:22:17Z</time></wpt>
<wpt lon="7.10557" lat="50.85766"><time>2019-12-04T13:22:18Z</time></wpt>
<wpt lon="7.10527" lat="50.85773"><time>2019-12-04T13:22:20Z</time></wpt>
<wpt lon="7.10506" lat="50.85777"><time>2019-12-04T13:22:21Z</time></wpt>
<wpt lon="7.10469" lat="50.85786"><time>2019-12-04T13:22:23Z</time></wpt>
<wpt lon="7.1043" lat="50.85794"><time>2019-12-04T13:22:25Z</time></wpt>
<wpt lon="7.10364" lat="50.85809"><time>2019-12-04T13:22:29Z</time></wpt>
<wpt lon="7.10318" lat="50.8582"><time>2019-12-04T13:22:32Z</time></wpt>
<wpt lon="7.10255" lat="50.85835"><time>2019-12-04T13:22:36Z</time></wpt>
<wpt lon="7.1019" lat="50.85852"><time>2019-12-04T13:22:40Z</time></wpt>
<wpt lon="7.10155" lat="50.85866"><time>2019-12-04T13:22:42Z</time></wpt>
<wpt lon="7.10153" lat="50.85887"><time>2019-12-04T13:22:44Z</time></wpt>
<wpt lon="7.10148" lat="50.85894"><time>2019-12-04T13:22:45Z</time></wpt>
<wpt lon="7.10125" lat="50.85893"><time>2019-12-04T13:22:46Z</time></wpt>
<wpt lon="7.10094" lat="50.85892"><time>2019-12-04T13:22:48Z</time></wpt>
<wpt lon="7.10077" lat="50.85891"><time>2019-12-04T13:22:49Z</time></wpt>
<wpt lon="7.10063" lat="50.8589"><time>2019-12-04T13:22:50Z</time></wpt>
<wpt lon="7.10009" lat="50.85889"><time>2019-12-04T13:22:53Z</time></wpt>
<wpt lon="7.09951" lat="50.85887"><time>2019-12-04T13:22:56Z</time></wpt>
<wpt lon="7.09933" lat="50.85886"><time>2019-12-04T13:22:57Z</time></wpt>
<wpt lon="7.09919" lat="50.85886"><time>2019-12-04T13:22:58Z</time></wpt>
<wpt lon="7.09879" lat="50.85884"><time>2019-12-04T13:23:00Z</time></wpt>
<wpt lon="7.09866" lat="50.85884"><time>2019-12-04T13:23:01Z</time></wpt>
<wpt lon="7.09814" lat="50.85883"><time>2019-12-04T13:23:04Z</time></wpt>
<wpt lon="7.09782" lat="50.85881"><time>2019-12-04T13:23:06Z</time></wpt>
</gpx>
