<?xml version="1.0" encoding="UTF-8"?>
<gpx>
<wpt lon="7.28481" lat="50.81817"><time>2019-11-30T22:49:54Z</time></wpt>
<wpt lon="7.28565" lat="50.81839"><time>2019-11-30T22:50:01Z</time></wpt>
<wpt lon="7.28648" lat="50.81861"><time>2019-11-30T22:50:07Z</time></wpt>
<wpt lon="7.28703" lat="50.81903"><time>2019-11-30T22:50:13Z</time></wpt>
<wpt lon="7.28758" lat="50.81944"><time>2019-11-30T22:50:19Z</time></wpt>
<wpt lon="7.2874" lat="50.81973"><time>2019-11-30T22:50:23Z</time></wpt>
<wpt lon="7.28702" lat="50.82006"><time>2019-11-30T22:50:28Z</time></wpt>
<wpt lon="7.28718" lat="50.82024"><time>2019-11-30T22:50:30Z</time></wpt>
<wpt lon="7.2883" lat="50.81981"><time>2019-11-30T22:50:40Z</time></wpt>
<wpt lon="7.28854" lat="50.81979"><time>2019-11-30T22:50:41Z</time></wpt>
<wpt lon="7.28854" lat="50.81978"><time>2019-11-30T22:50:42Z</time></wpt>
<wpt lon="7.28907" lat="50.81973"><time>2019-11-30T22:50:45Z</time></wpt>
<wpt lon="7.28959" lat="50.81965"><time>2019-11-30T22:50:49Z</time></wpt>
<wpt lon="7.29053" lat="50.81916"><time>2019-11-30T22:50:58Z</time></wpt>
<wpt lon="7.29178" lat="50.81897"><time>2019-11-30T22:51:07Z</time></wpt>
<wpt lon="7.29241" lat="50.8188"><time>2019-11-30T22:51:12Z</time></wpt>
<wpt lon="7.29324" lat="50.81897"><time>2019-11-30T22:51:19Z</time></wpt>
<wpt lon="7.29427" lat="50.81924"><time>2019-11-30T22:51:27Z</time></wpt>
<wpt lon="7.29508" lat="50.81925"><time>2019-11-30T22:51:33Z</time></wpt>
<wpt lon="7.29552" lat="50.81933"><time>2019-11-30T22:51:36Z</time></wpt>
<wpt lon="7.29585" lat="50.81924"><time>2019-11-30T22:51:38Z</time></wpt>
<wpt lon="7.296" lat="50.8192"><time>2019-11-30T22:51:40Z</time></wpt>
<wpt lon="7.29654" lat="50.81911"><time>2019-11-30T22:51:44Z</time></wpt>
<wpt lon="7.29704" lat="50.81904"><time>2019-11-30T22:51:47Z</time></wpt>
<wpt lon="7.29713" lat="50.81904"><time>2019-11-30T22:51:48Z</time></wpt>
<wpt lon="7.29816" lat="50.81918"><time>2019-11-30T22:51:56Z</time></wpt>
<wpt lon="7.29864" lat="50.81924"><time>2019-11-30T22:51:59Z</time></wpt>
<wpt lon="7.29918" lat="50.81929"><time>2019-11-30T22:52:03Z</time></wpt>
<wpt lon="7.29956" lat="50.8193"><time>2019-11-30T22:52:06Z</time></wpt>
<wpt lon="7.30025" lat="50.81929"><time>2019-11-30T22:52:11Z</time></wpt>
<wpt lon="7.30049" lat="50.81931"><time>2019-11-30T22:52:13Z</time></wpt>
<wpt lon="7.30073" lat="50.81933"><time>2019-11-30T22:52:14Z</time></wpt>
<wpt lon="7.30086" lat="50.81934"><time>2019-11-30T22:52:15Z</time></wpt>
<wpt lon="7.30086" lat="50.81934"><time>2019-11-30T22:52:16Z</time></wpt>
<wpt lon="7.301" lat="50.81936"><time>2019-11-30T22:52:18Z</time></wpt>
<wpt lon="7.30115" lat="50.81935"><time>2019-11-30T22:52:19Z</time></wpt>
<wpt lon="7.30142" lat="50.81929"><time>2019-11-30T22:52:21Z</time></wpt>
<wpt lon="7.30192" lat="50.81916"><time>2019-11-30T22:52:25Z</time></wpt>
<wpt lon="7.30229" lat="50.81905"><time>2019-11-30T22:52:28Z</time></wpt>
<wpt lon="7.30255" lat="50.81895"><time>2019-11-30T22:52:30Z</time></wpt>
<wpt lon="7.30268" lat="50.81883"><time>2019-11-30T22:52:31Z</time></wpt>
<wpt lon="7.30268" lat="50.81866"><time>2019-11-30T22:52:33Z</time></wpt>
<wpt lon="7.30257" lat="50.81852"><time>2019-11-30T22:52:35Z</time></wpt>
<wpt lon="7.30237" lat="50.81844"><time>2019-11-30T22:52:37Z</time></wpt>
<wpt lon="7.30199" lat="50.8184"><time>2019-11-30T22:52:40Z</time></wpt>
<wpt lon="7.30146" lat="50.81836"><time>2019-11-30T22:52:43Z</time></wpt>
<wpt lon="7.30107" lat="50.81833"><time>2019-11-30T22:52:46Z</time></wpt>
<wpt lon="7.30081" lat="50.8183"><time>2019-11-30T22:52:48Z</time></wpt>
<wpt lon="7.30061" lat="50.81825"><time>2019-11-30T22:52:50Z</time></wpt>
<wpt lon="7.3005" lat="50.8182"><time>2019-11-30T22:52:51Z</time></wpt>
<wpt lon="7.30042" lat="50.81813"><time>2019-11-30T22:52:52Z</time></wpt>
<wpt lon="7.3004" lat="50.81804"><time>2019-11-30T22:52:53Z</time></wpt>
<wpt lon="7.30049" lat="50.81793"><time>2019-11-30T22:52:54Z</time></wpt>
<wpt lon="7.3006" lat="50.8178"><time>2019-11-30T22:52:56Z</time></wpt>
<wpt lon="7.30075" lat="50.81765"><time>2019-11-30T22:52:58Z</time></wpt>
<wpt lon="7.30089" lat="50.81744"><time>2019-11-30T22:53:01Z</time></wpt>
<wpt lon="7.30094" lat="50.81731"><time>2019-11-30T22:53:02Z</time></wpt>
<wpt lon="7.30095" lat="50.81719"><time>2019-11-30T22:53:03Z</time></wpt>
<wpt lon="7.30091" lat="50.81708"><time>2019-11-30T22:53:05Z</time></wpt>
<wpt lon="7.30081" lat="50.81696"><time>2019-11-30T22:53:06Z</time></wpt>
<wpt lon="7.30072" lat="50.81691"><time>2019-11-30T22:53:07Z</time></wpt>
<wpt lon="7.30056" lat="50.81685"><time>2019-11-30T22:53:08Z</time></wpt>
<wpt lon="7.30027" lat="50.8168"><time>2019-11-30T22:53:11Z</time></wpt>
<wpt lon="7.29995" lat="50.81676"><time>2019-11-30T22:53:13Z</time></wpt>
<wpt lon="7.29979" lat="50.81677"><time>2019-11-30T22:53:14Z</time></wpt>
<wpt lon="7.29951" lat="50.81682"><time>2019-11-30T22:53:16Z</time></wpt>
<wpt lon="7.29929" lat="50.81683"><time>2019-11-30T22:53:18Z</time></wpt>
<wpt lon="7.29908" lat="50.81678"><time>2019-11-30T22:53:20Z</time></wpt>
<wpt lon="7.29889" lat="50.8167"><time>2019-11-30T22:53:21Z</time></wpt>
<wpt lon="7.29873" lat="50.81661"><time>2019-11-30T22:53:23Z</time></wpt>
<wpt lon="7.29855" lat="50.81654"><time>2019-11-30T22:53:24Z</time></wpt>
<wpt lon="7.29802" lat="50.81653"><time>2019-11-30T22:53:28Z</time></wpt>
<wpt lon="7.29708" lat="50.81644"><time>2019-11-30T22:53:35Z</time></wpt>
<wpt lon="7.29697" lat="50.81643"><time>2019-11-30T22:53:36Z</time></wpt>
<wpt lon="7.29682" lat="50.81645"><time>2019-11-30T22:53:37Z</time></wpt>
<wpt lon="7.29669" lat="50.81648"><time>2019-11-30T22:53:38Z</time></wpt>
<wpt lon="7.29661" lat="50.81653"><time>2019-11-30T22:53:39Z</time></wpt>
<wpt lon="7.29644" lat="50.8167"><time>2019-11-30T22:53:41Z</time></wpt>
<wpt lon="7.29603" lat="50.81699"><time>2019-11-30T22:53:45Z</time></wpt>
<wpt lon="7.29596" lat="50.81712"><time>2019-11-30T22:53:47Z</time></wpt>
<wpt lon="7.29584" lat="50.81752"><time>2019-11-30T22:53:52Z</time></wpt>
<wpt lon="7.29578" lat="50.81766"><time>2019-11-30T22:53:53Z</time></wpt>
<wpt lon="7.29572" lat="50.81772"><time>2019-11-30T22:53:54Z</time></wpt>
<wpt lon="7.29562" lat="50.81778"><time>2019-11-30T22:53:55Z</time></wpt>
<wpt lon="7.29498" lat="50.81792"><time>2019-11-30T22:54:00Z</time></wpt>
<wpt lon="7.29448" lat="50.81807"><time>2019-11-30T22:54:04Z</time></wpt>
<wpt lon="7.29435" lat="50.81812"><time>2019-11-30T22:54:05Z</time></wpt>
<wpt lon="7.29422" lat="50.81818"><time>2019-11-30T22:54:06Z</time></wpt>
<wpt lon="7.2941" lat="50.81827"><time>2019-11-30T22:54:08Z</time></wpt>
<wpt lon="7.29397" lat="50.81833"><time>2019-11-30T22:54:09Z</time></wpt>
<wpt lon="7.29383" lat="50.81835"><time>2019-11-30T22:54:10Z</time></wpt>
<wpt lon="7.29371" lat="50.81834"><time>2019-11-30T22:54:11Z</time></wpt>
<wpt lon="7.29358" lat="50.81829"><time>2019-11-30T22:54:12Z</time></wpt>
<wpt lon="7.29341" lat="50.8182"><time>2019-11-30T22:54:13Z</time></wpt>
<wpt lon="7.29313" lat="50.81803"><time>2019-11-30T22:54:16Z</time></wpt>
<wpt lon="7.29305" lat="50.81799"><time>2019-11-30T22:54:17Z</time></wpt>
<wpt lon="7.29288" lat="50.81791"><time>2019-11-30T22:54:18Z</time></wpt>
<wpt lon="7.29259" lat="50.81782"><time>2019-11-30T22:54:21Z</time></wpt>
<wpt lon="7.29223" lat="50.81776"><time>2019-11-30T22:54:23Z</time></wpt>
<wpt lon="7.292" lat="50.81774"><time>2019-11-30T22:54:25Z</time></wpt>
<wpt lon="7.29174" lat="50.81773"><time>2019-11-30T22:54:27Z</time></wpt>
<wpt lon="7.29155" lat="50.81772"><time>2019-11-30T22:54:28Z</time></wpt>
<wpt lon="7.29145" lat="50.81771"><time>2019-11-30T22:54:29Z</time></wpt>
<wpt lon="7.29142" lat="50.81766"><time>2019-11-30T22:54:30Z</time></wpt>
<wpt lon="7.2914" lat="50.81755"><time>2019-11-30T22:54:31Z</time></wpt>
<wpt lon="7.29142" lat="50.81746"><time>2019-11-30T22:54:32Z</time></wpt>
<wpt lon="7.29161" lat="50.81733"><time>2019-11-30T22:54:34Z</time></wpt>
<wpt lon="7.29226" lat="50.8171"><time>2019-11-30T22:54:39Z</time></wpt>
<wpt lon="7.29235" lat="50.81708"><time>2019-11-30T22:54:40Z</time></wpt>
<wpt lon="7.29242" lat="50.81703"><time>2019-11-30T22:54:41Z</time></wpt>
<wpt lon="7.29244" lat="50.81698"><time>2019-11-30T22:54:42Z</time></wpt>
<wpt lon="7.2924" lat="50.81689"><time>2019-11-30T22:54:43Z</time></wpt>
<wpt lon="7.29228" lat="50.81681"><time>2019-11-30T22:54:44Z</time></wpt>
<wpt lon="7.29204" lat="50.81673"><time>2019-11-30T22:54:46Z</time></wpt>
<wpt lon="7.29173" lat="50.81662"><time>2019-11-30T22:54:48Z</time></wpt>
<wpt lon="7.29158" lat="50.81657"><time>2019-11-30T22:54:50Z</time></wpt>
<wpt lon="7.2914" lat="50.8165"><time>2019-11-30T22:54:51Z</time></wpt>
<wpt lon="7.29123" lat="50.81646"><time>2019-11-30T22:54:52Z</time></wpt>
<wpt lon="7.29112" lat="50.81643"><time>2019-11-30T22:54:53Z</time></wpt>
<wpt lon="7.29107" lat="50.81649"><time>2019-11-30T22:54:54Z</time></wpt>
<wpt lon="7.29109" lat="50.81655"><time>2019-11-30T22:54:55Z</time></wpt>
<wpt lon="7.29116" lat="50.8166"><time>2019-11-30T22:54:56Z</time></wpt>
<wpt lon="7.29129" lat="50.81669"><time>2019-11-30T22:54:57Z</time></wpt>
<wpt lon="7.29132" lat="50.81679"><time>2019-11-30T22:54:58Z</time></wpt>
<wpt lon="7.29127" lat="50.81684"><time>2019-11-30T22:54:59Z</time></wpt>
<wpt lon="7.29117" lat="50.81688"><time>2019-11-30T22:55:00Z</time></wpt>
<wpt lon="7.29093" lat="50.81695"><time>2019-11-30T22:55:02Z</time></wpt>
<wpt lon="7.29065" lat="50.81701"><time>2019-11-30T22:55:04Z</time></wpt>
<wpt lon="7.29044" lat="50.81706"><time>2019-11-30T22:55:06Z</time></wpt>
<wpt lon="7.29021" lat="50.81711"><time>2019-11-30T22:55:07Z</time></wpt>
<wpt lon="7.2898" lat="50.8172"><time>2019-11-30T22:55:10Z</time></wpt>
<wpt lon="7.28954" lat="50.81726"><time>2019-11-30T22:55:12Z</time></wpt>
<wpt lon="7.2892" lat="50.81736"><time>2019-11-30T22:55:15Z</time></wpt>
<wpt lon="7.28908" lat="50.81739"><time>2019-11-30T22:55:16Z</time></wpt>
<wpt lon="7.28894" lat="50.81742"><time>2019-11-30T22:55:17Z</time></wpt>
<wpt lon="7.28882" lat="50.81742"><time>2019-11-30T22:55:18Z</time></wpt>
<wpt lon="7.28868" lat="50.81742"><time>2019-11-30T22:55:19Z</time></wpt>
<wpt lon="7.28826" lat="50.81729"><time>2019-11-30T22:55:22Z</time></wpt>
<wpt lon="7.2873" lat="50.817"><time>2019-11-30T22:55:30Z</time></wpt>
<wpt lon="7.28683" lat="50.81693"><time>2019-11-30T22:55:34Z</time></wpt>
<wpt lon="7.28651" lat="50.81691"><time>2019-11-30T22:55:36Z</time></wpt>
<wpt lon="7.28596" lat="50.81693"><time>2019-11-30T22:55:40Z</time></wpt>
<wpt lon="7.28567" lat="50.81691"><time>2019-11-30T22:55:42Z</time></wpt>
<wpt lon="7.28543" lat="50.81693"><time>2019-11-30T22:55:44Z</time></wpt>
<wpt lon="7.28525" lat="50.81697"><time>2019-11-30T22:55:45Z</time></wpt>
<wpt lon="7.28509" lat="50.81705"><time>2019-11-30T22:55:47Z</time></wpt>
<wpt lon="7.28449" lat="50.81747"><time>2019-11-30T22:55:53Z</time></wpt>
<wpt lon="7.28437" lat="50.81746"><time>2019-11-30T22:55:54Z</time></wpt>
<wpt lon="7.28422" lat="50.81764"><time>2019-11-30T22:55:56Z</time></wpt>
<wpt lon="7.28417" lat="50.8177"><time>2019-11-30T22:55:57Z</time></wpt>
<wpt lon="7.28409" lat="50.81779"><time>2019-11-30T22:55:58Z</time></wpt>
<wpt lon="7.28398" lat="50.81795"><time>2019-11-30T22:56:00Z</time></wpt>
</gpx>
